{
  "project_info": {
    "project_number": "1055567930690",
    "project_id": "chat-app-49cbf",
    "storage_bucket": "chat-app-49cbf.firebasestorage.app"
  },
  "client": [
    {
      "client_info": {
        "mobilesdk_app_id": "1:1055567930690:android:eca6e6b1a71cbe7a3414db",
        "android_client_info": {
          "package_name": "com.example.chat_page_application"
        }
      },
      "oauth_client": [],
      "api_key": [
        {
          "current_key": "AIzaSyC9e-BAnT7SKANgyXs-7zUwMBW_E5w84DA"
        }
      ],
      "services": {
        "appinvite_service": {
          "other_platform_oauth_client": []
        }
      }
    }
  ],
  "configuration_version": "1"
}