{
  "project_info": {
    "project_number": "358930818366",
    "project_id": "fir-auth-project-b8443",
    "storage_bucket": "fir-auth-project-b8443.firebasestorage.app"
  },
  "client": [
    {
      "client_info": {
        "mobilesdk_app_id": "1:358930818366:android:32da9c7e68152773b3386f",
        "android_client_info": {
          "package_name": "com.example.firebaseConnection"
        }
      },
      "oauth_client": [],
      "api_key": [
        {
          "current_key": "AIzaSyBTEys0EwiFAVB0MIWtBtvjNIGYciF01AA"
        }
      ],
      "services": {
        "appinvite_service": {
          "other_platform_oauth_client": []
        }
      }
    }
  ],
  "configuration_version": "1"
}